{
      "page": 1,
      "count": 1163,
      "pages": 24,
      "results": [
            {
                  "count": 1163,
                  "person": "http://data.biographynet.nl/rdf/PersonDes-10530280_03",
                  "entityTypeLabel": "person",
                  "entityLabel": "Ziegler , Frans (1893-1939) "
            },
            {
                  "count": 1163,
                  "person": "http://data.biographynet.nl/rdf/PersonDes-10530280_03",
                  "entityTypeLabel": "person",
                  "entityLabel": "Ziegler , Franciscus Xaverius Wilhelmus Josephus (1893-1939) "
            },
            {
                  "count": 1163,
                  "person": "http://data.biographynet.nl/rdf/PersonDes-10530280_03",
                  "entityTypeLabel": "person",
                  "entityLabel": "Ziegler , Franz (1893-1939) "
            },
            {
                  "count": 1163,
                  "person": "http://data.biographynet.nl/rdf/PersonDes-10777578_02",
                  "entityTypeLabel": "person",
                  "entityLabel": "Feigl, Franz"
            },
            {
                  "count": 1163,
                  "person": "http://data.biographynet.nl/rdf/PersonDes-1298486_01",
                  "entityTypeLabel": "person",
                  "entityLabel": "Kaspar Karl Ferdinand Anton Franz de Weichs de Wenne"
            },
            {
                  "count": 1163,
                  "person": "http://data.biographynet.nl/rdf/PersonDes-1298486_02",
                  "entityTypeLabel": "person",
                  "entityLabel": "Kaspar Karl Ferdinand Anton Franz de Weichs de Wenne"
            },
            {
                  "count": 1163,
                  "person": "http://data.biographynet.nl/rdf/PersonDes-1298486_02",
                  "entityTypeLabel": "person",
                  "entityLabel": "Van Weichs van Winnen van Geysteren"
            },
            {
                  "count": 1163,
                  "person": "http://data.biographynet.nl/rdf/PersonDes-1298486_04",
                  "entityTypeLabel": "person",
                  "entityLabel": "Kaspar Karl Ferdinand Anton Franz   baron de   Weichs de Wenne "
            },
            {
                  "count": 1163,
                  "person": "http://data.biographynet.nl/rdf/PersonDes-1298486_05",
                  "entityTypeLabel": "person",
                  "entityLabel": "Van Weichs van Winnen van Geysteren"
            },
            {
                  "count": 1163,
                  "person": "http://data.biographynet.nl/rdf/PersonDes-1298486_05",
                  "entityTypeLabel": "person",
                  "entityLabel": "Kaspar Karl Ferdinand Anton Franz   baron de   Weichs de Wenne "
            },
            {
                  "count": 1163,
                  "person": "http://data.biographynet.nl/rdf/PersonDes-13616870_02",
                  "entityTypeLabel": "person",
                  "entityLabel": "Moormans , Franciscus Leonardus Johannes "
            },
            {
                  "count": 1163,
                  "person": "http://data.biographynet.nl/rdf/PersonDes-13616870_02",
                  "entityTypeLabel": "person",
                  "entityLabel": "Moormans , Frans "
            },
            {
                  "count": 1163,
                  "person": "http://data.biographynet.nl/rdf/PersonDes-13616870_02",
                  "entityTypeLabel": "person",
                  "entityLabel": "Moormans , Franz "
            },
            {
                  "count": 1163,
                  "person": "http://data.biographynet.nl/rdf/PersonDes-16657664_02",
                  "entityTypeLabel": "person",
                  "entityLabel": "Brandt Buys, Gerrit Bernhard Franz"
            },
            {
                  "count": 1163,
                  "person": "http://data.biographynet.nl/rdf/PersonDes-20135608_02",
                  "entityTypeLabel": "person",
                  "entityLabel": "Eisner, Dr.Ing. Franz"
            },
            {
                  "count": 1163,
                  "person": "http://data.biographynet.nl/rdf/PersonDes-21492410_02",
                  "entityTypeLabel": "person",
                  "entityLabel": "Godin , Franz "
            },
            {
                  "count": 1163,
                  "person": "http://data.biographynet.nl/rdf/PersonDes-21492410_02",
                  "entityTypeLabel": "person",
                  "entityLabel": "Codino , Francesco "
            },
            {
                  "count": 1163,
                  "person": "http://data.biographynet.nl/rdf/PersonDes-22846496_02",
                  "entityTypeLabel": "person",
                  "entityLabel": "Melchers , Frans "
            },
            {
                  "count": 1163,
                  "person": "http://data.biographynet.nl/rdf/PersonDes-22846496_02",
                  "entityTypeLabel": "person",
                  "entityLabel": "Melchers , Franz Marie Joseph Adolphe "
            },
            {
                  "count": 1163,
                  "person": "http://data.biographynet.nl/rdf/PersonDes-22846496_02",
                  "entityTypeLabel": "person",
                  "entityLabel": "Melchers , Franz "
            },
            {
                  "count": 1163,
                  "person": "http://data.biographynet.nl/rdf/PersonDes-22846496_02",
                  "entityTypeLabel": "person",
                  "entityLabel": "Melchers , Frantz "
            },
            {
                  "count": 1163,
                  "person": "http://data.biographynet.nl/rdf/PersonDes-23367507_02",
                  "entityTypeLabel": "person",
                  "entityLabel": "Deutmann, Franz Wilhelm"
            },
            {
                  "count": 1163,
                  "person": "http://data.biographynet.nl/rdf/PersonDes-2518340_02",
                  "entityTypeLabel": "person",
                  "entityLabel": "Douwe , F. "
            },
            {
                  "count": 1163,
                  "person": "http://data.biographynet.nl/rdf/PersonDes-2518340_02",
                  "entityTypeLabel": "person",
                  "entityLabel": "Douwe , Franciscus Carolus von "
            },
            {
                  "count": 1163,
                  "person": "http://data.biographynet.nl/rdf/PersonDes-2518340_02",
                  "entityTypeLabel": "person",
                  "entityLabel": "Douwe , Franz Karl von "
            },
            {
                  "count": 1163,
                  "person": "http://data.biographynet.nl/rdf/PersonDes-2518340_02",
                  "entityTypeLabel": "person",
                  "entityLabel": "Douwe , Franz Carl von "
            },
            {
                  "count": 1163,
                  "person": "http://data.biographynet.nl/rdf/PersonDes-2518340_02",
                  "entityTypeLabel": "person",
                  "entityLabel": "Douwe , Franciscus Carolus van "
            },
            {
                  "count": 1163,
                  "person": "http://data.biographynet.nl/rdf/PersonDes-25531806_02",
                  "entityTypeLabel": "person",
                  "entityLabel": "Braun , Franz "
            },
            {
                  "count": 1163,
                  "person": "http://data.biographynet.nl/rdf/PersonDes-25531806_02",
                  "entityTypeLabel": "person",
                  "entityLabel": "Braun , Franz Joseph Heinrich "
            },
            {
                  "count": 1163,
                  "person": "http://data.biographynet.nl/rdf/PersonDes-27316740_01",
                  "entityTypeLabel": "person",
                  "entityLabel": "Steinmetz, Philipp Christian Jacob Franz"
            },
            {
                  "count": 1163,
                  "person": "http://data.biographynet.nl/rdf/PersonDes-27316740_02",
                  "entityTypeLabel": "person",
                  "entityLabel": "Steinmetz , Philipp Christian Jacob Franz "
            },
            {
                  "count": 1163,
                  "person": "http://data.biographynet.nl/rdf/PersonDes-27804918_02",
                  "entityTypeLabel": "person",
                  "entityLabel": "Timmer , Johannes Franz Coenraad "
            },
            {
                  "count": 1163,
                  "person": "http://data.biographynet.nl/rdf/PersonDes-27804918_02",
                  "entityTypeLabel": "person",
                  "entityLabel": "Timmer , Hans (1912-1997) "
            },
            {
                  "count": 1163,
                  "person": "http://data.biographynet.nl/rdf/PersonDes-27992942_02",
                  "entityTypeLabel": "person",
                  "entityLabel": "Backer, Franz Jozef de"
            },
            {
                  "count": 1163,
                  "person": "http://data.biographynet.nl/rdf/PersonDes-27992942_03",
                  "entityTypeLabel": "person",
                  "entityLabel": "Backer, Franz Jozef de"
            },
            {
                  "count": 1163,
                  "person": "http://data.biographynet.nl/rdf/PersonDes-27992942_04",
                  "entityTypeLabel": "person",
                  "entityLabel": "Backer, Franz Jozef de"
            },
            {
                  "count": 1163,
                  "person": "http://data.biographynet.nl/rdf/PersonDes-27992942_05",
                  "entityTypeLabel": "person",
                  "entityLabel": "Backer, Franz Jozef de"
            },
            {
                  "count": 1163,
                  "person": "http://data.biographynet.nl/rdf/PersonDes-27992942_06",
                  "entityTypeLabel": "person",
                  "entityLabel": "Backer, Franz Jozef de"
            },
            {
                  "count": 1163,
                  "person": "http://data.biographynet.nl/rdf/PersonDes-29812239_01",
                  "entityTypeLabel": "person",
                  "entityLabel": "Franz Wilhelm  Koenigs "
            },
            {
                  "count": 1163,
                  "person": "http://data.biographynet.nl/rdf/PersonDes-29812239_04",
                  "entityTypeLabel": "person",
                  "entityLabel": "Koenigs , Franz Wilhelm "
            },
            {
                  "count": 1163,
                  "person": "http://data.biographynet.nl/rdf/PersonDes-29812239_05",
                  "entityTypeLabel": "person",
                  "entityLabel": "Koenigs, Franz W."
            },
            {
                  "count": 1163,
                  "person": "http://data.biographynet.nl/rdf/PersonDes-29812239_06",
                  "entityTypeLabel": "person",
                  "entityLabel": "Franz Koenigs"
            },
            {
                  "count": 1163,
                  "person": "http://data.biographynet.nl/rdf/PersonDes-29812239_07",
                  "entityTypeLabel": "person",
                  "entityLabel": "Koenigs, Franz Wilhelm "
            },
            {
                  "count": 1163,
                  "person": "http://data.biographynet.nl/rdf/PersonDes-30028005_02",
                  "entityTypeLabel": "person",
                  "entityLabel": "Backer , Johann Franz de "
            },
            {
                  "count": 1163,
                  "person": "http://data.biographynet.nl/rdf/PersonDes-30028005_02",
                  "entityTypeLabel": "person",
                  "entityLabel": "Backer , Johann Frans de "
            },
            {
                  "count": 1163,
                  "person": "http://data.biographynet.nl/rdf/PersonDes-34784579_01",
                  "entityTypeLabel": "person",
                  "entityLabel": "Johann Michael Franz  Birnbaum "
            },
            {
                  "count": 1163,
                  "person": "http://data.biographynet.nl/rdf/PersonDes-34784579_03",
                  "entityTypeLabel": "person",
                  "entityLabel": "Birnbaum , Johann Michael Franz "
            },
            {
                  "count": 1163,
                  "person": "http://data.biographynet.nl/rdf/PersonDes-35260075_01",
                  "entityTypeLabel": "person",
                  "entityLabel": "Meerburg, George Franz Gezelle"
            },
            {
                  "count": 1163,
                  "person": "http://data.biographynet.nl/rdf/PersonDes-35260075_04",
                  "entityTypeLabel": "person",
                  "entityLabel": "Meerburg , George Franz Gezelle "
            },
            {
                  "count": 1163,
                  "person": "http://data.biographynet.nl/rdf/PersonDes-3747009_02",
                  "entityTypeLabel": "person",
                  "entityLabel": "Hentschel , Karl "
            },
            {
                  "count": 1163,
                  "person": "http://data.biographynet.nl/rdf/PersonDes-3747009_02",
                  "entityTypeLabel": "person",
                  "entityLabel": "Hentschel , Karl Franz Gustav "
            },
            {
                  "count": 1163,
                  "person": "http://data.biographynet.nl/rdf/PersonDes-40213971_02",
                  "entityTypeLabel": "person",
                  "entityLabel": "Vismans, Franz Joseph Florenz"
            },
            {
                  "count": 1163,
                  "person": "http://data.biographynet.nl/rdf/PersonDes-40729965_02",
                  "entityTypeLabel": "person",
                  "entityLabel": "Asbroeck , Franciscus "
            },
            {
                  "count": 1163,
                  "person": "http://data.biographynet.nl/rdf/PersonDes-40729965_02",
                  "entityTypeLabel": "person",
                  "entityLabel": "Asbroek , Franciscus "
            },
            {
                  "count": 1163,
                  "person": "http://data.biographynet.nl/rdf/PersonDes-40729965_02",
                  "entityTypeLabel": "person",
                  "entityLabel": "Assbrugg , Franciscus "
            },
            {
                  "count": 1163,
                  "person": "http://data.biographynet.nl/rdf/PersonDes-40729965_02",
                  "entityTypeLabel": "person",
                  "entityLabel": "Aspruck , Frantz "
            },
            {
                  "count": 1163,
                  "person": "http://data.biographynet.nl/rdf/PersonDes-40729965_02",
                  "entityTypeLabel": "person",
                  "entityLabel": "Aspruck , Franz "
            },
            {
                  "count": 1163,
                  "person": "http://data.biographynet.nl/rdf/PersonDes-40729965_02",
                  "entityTypeLabel": "person",
                  "entityLabel": "Assbrugg , Frantz "
            },
            {
                  "count": 1163,
                  "person": "http://data.biographynet.nl/rdf/PersonDes-40729965_02",
                  "entityTypeLabel": "person",
                  "entityLabel": "Assbrugg , Franz "
            },
            {
                  "count": 1163,
                  "person": "http://data.biographynet.nl/rdf/PersonDes-41115446_02",
                  "entityTypeLabel": "person",
                  "entityLabel": "Franz Karl Leopold   von   Klenze "
            },
            {
                  "count": 1163,
                  "person": "http://data.biographynet.nl/rdf/PersonDes-44906695_02",
                  "entityTypeLabel": "person",
                  "entityLabel": "Hermesdorff , Franz Peter "
            },
            {
                  "count": 1163,
                  "person": "http://data.biographynet.nl/rdf/PersonDes-44906695_02",
                  "entityTypeLabel": "person",
                  "entityLabel": "Hermesdorf , Franz "
            },
            {
                  "count": 1163,
                  "person": "http://data.biographynet.nl/rdf/PersonDes-44906695_02",
                  "entityTypeLabel": "person",
                  "entityLabel": "Hermesdorf , Frans "
            },
            {
                  "count": 1163,
                  "person": "http://data.biographynet.nl/rdf/PersonDes-44906695_02",
                  "entityTypeLabel": "person",
                  "entityLabel": "Hermesdorff , Frans "
            },
            {
                  "count": 1163,
                  "person": "http://data.biographynet.nl/rdf/PersonDes-44906695_02",
                  "entityTypeLabel": "person",
                  "entityLabel": "Hermesdorf , Frans Peter "
            },
            {
                  "count": 1163,
                  "person": "http://data.biographynet.nl/rdf/PersonDes-44906695_02",
                  "entityTypeLabel": "person",
                  "entityLabel": "Hermesdorff , Frans Peter "
            },
            {
                  "count": 1163,
                  "person": "http://data.biographynet.nl/rdf/PersonDes-46184703_01",
                  "entityTypeLabel": "person",
                  "entityLabel": "R\u00fctz , Franz Georg Christopher "
            },
            {
                  "count": 1163,
                  "person": "http://data.biographynet.nl/rdf/PersonDes-46184703_02",
                  "entityTypeLabel": "person",
                  "entityLabel": "R\u00fctz , Franz Georg Christopher "
            },
            {
                  "count": 1163,
                  "person": "http://data.biographynet.nl/rdf/PersonDes-49382496_01",
                  "entityTypeLabel": "person",
                  "entityLabel": "Franz Marius Theodor  de   Liagre B\u00f6hl "
            },
            {
                  "count": 1163,
                  "person": "http://data.biographynet.nl/rdf/PersonDes-49382496_03",
                  "entityTypeLabel": "person",
                  "entityLabel": "Liagre B\u00f6hl, Franz Marius Theodor de"
            },
            {
                  "count": 1163,
                  "person": "http://data.biographynet.nl/rdf/PersonDes-53500354_02",
                  "entityTypeLabel": "person",
                  "entityLabel": "G\u00fcntermann, Franz"
            },
            {
                  "count": 1163,
                  "person": "http://data.biographynet.nl/rdf/PersonDes-53730616_02",
                  "entityTypeLabel": "person",
                  "entityLabel": "Deutmann , Franz Wilhelm Maria "
            },
            {
                  "count": 1163,
                  "person": "http://data.biographynet.nl/rdf/PersonDes-53730616_02",
                  "entityTypeLabel": "person",
                  "entityLabel": "Deutmann , Franz "
            },
            {
                  "count": 1163,
                  "person": "http://data.biographynet.nl/rdf/PersonDes-55464819_02",
                  "entityTypeLabel": "person",
                  "entityLabel": "Gr\u00fctters, Johan Franz Joseph"
            },
            {
                  "count": 1163,
                  "person": "http://data.biographynet.nl/rdf/PersonDes-59053961_01",
                  "entityTypeLabel": "person",
                  "entityLabel": "Wilhelm Franz  Lichtenauer "
            },
            {
                  "count": 1163,
                  "person": "http://data.biographynet.nl/rdf/PersonDes-59053961_05",
                  "entityTypeLabel": "person",
                  "entityLabel": "Lichtenauer , Wilhelm Franz "
            },
            {
                  "count": 1163,
                  "person": "http://data.biographynet.nl/rdf/PersonDes-59053961_06",
                  "entityTypeLabel": "person",
                  "entityLabel": "    Dr. \n     W.F. \n     Lichtenauer \n   "
            },
            {
                  "count": 1163,
                  "person": "http://data.biographynet.nl/rdf/PersonDes-59053961_06",
                  "entityTypeLabel": "person",
                  "entityLabel": "    Dr. \n     Franz \n     Lichtenauer \n   "
            },
            {
                  "count": 1163,
                  "person": "http://data.biographynet.nl/rdf/PersonDes-59053961_06",
                  "entityTypeLabel": "person",
                  "entityLabel": "    Dr. \n     Wilhelm \n    Franz \n     Lichtenauer \n   "
            },
            {
                  "count": 1163,
                  "person": "http://data.biographynet.nl/rdf/PersonDes-59053961_07",
                  "entityTypeLabel": "person",
                  "entityLabel": "Franz Lichtenauer"
            },
            {
                  "count": 1163,
                  "person": "http://data.biographynet.nl/rdf/PersonDes-59053961_08",
                  "entityTypeLabel": "person",
                  "entityLabel": "Lichtenauer, Wilhelm Franz "
            },
            {
                  "count": 1163,
                  "person": "http://data.biographynet.nl/rdf/PersonDes-59053961_09",
                  "entityTypeLabel": "person",
                  "entityLabel": "Lichtenauer, Wilhelm Franz "
            }
      ]
}